fr\alexis\syluriaproxy\commands\moderation\StaffChatCommand.class
fr\alexis\syluriaproxy\commands\moderation\ConnectCommand.class
fr\alexis\syluriaproxy\manager\Database.class
fr\alexis\syluriaproxy\utils\RequestType.class
fr\alexis\syluriaproxy\commands\moderation\BanCommand.class
fr\alexis\syluriaproxy\commands\bloque\BungeeCommand.class
fr\alexis\syluriaproxy\commands\bloque\PlCommand.class
fr\alexis\syluriaproxy\commands\moderation\BtpCommand.class
fr\alexis\syluriaproxy\events\UnBanEvents.class
fr\alexis\syluriaproxy\Main.class
fr\alexis\syluriaproxy\commands\moderation\UnBanCommand.class
fr\alexis\syluriaproxy\listener\ChatListeners.class
fr\alexis\syluriaproxy\listener\ModListeners.class
fr\alexis\syluriaproxy\events\BanEvents.class
fr\alexis\syluriaproxy\listener\UnBanListeners.class
fr\alexis\syluriaproxy\listener\BanListeners.class
fr\alexis\syluriaproxy\commands\admin\AnnonceCommand.class
fr\alexis\syluriaproxy\commands\moderation\UnBanCommand$1.class
fr\alexis\syluriaproxy\listener\PingListener.class
fr\alexis\syluriaproxy\utils\PlayerUtils.class
fr\alexis\syluriaproxy\manager\ConfigManager.class
fr\alexis\syluriaproxy\commands\utils\LobbyCommand.class
fr\alexis\syluriaproxy\utils\BungeeManager.class
fr\alexis\syluriaproxy\manager\BanManager.class
fr\alexis\syluriaproxy\commands\moderation\BanCommand$1.class
